{
  "database": {
    "rules": "db/database.rules.json"
  },
  "firestore": {
    "rules": "db/firestore.rules",
    "indexes": "db/firestore.indexes.json"
  },
  "hosting": {
    "public": "dist",
    "ignore": [
      "firebase.json",
      "**/.*",
      "**/node_modules/**"
    ],
    "rewrites": [
      {
        "source": "**",
        "destination": "/index.html"
      }
    ]
  },
  "storage": {
    "rules": "db/storage.rules"
  }
}